п»ї{
  "message": {
    "text": "OK",
    "type": "info",
    "slug": "OK"
  },
  "pagination": true,
  "data": {
    "total": 16641,
    "perPage": 100,
    "pages": 167,
    "page": 1,
    "rows": [
      {
        "dificuldade": 1,
        "bancas": [
          {
            "oab": false,
            "sigla": "ACCESS",
            "nome": "Instituto ACCESS",
            "id": 5,
            "slug": "access",
            "descricao": "Instituto ACCESS - ACCESS"
          }
        ],
        "cargos": [
          {
            "id": 6708,
            "slug": "assistente-em-administracao",
            "descricao": "Assistente em AdministraГѓВ§ГѓВЈo"
          }
        ],
        "orgaos": [
          {
            "esfera": "Estadual",
            "uf": "RS",
            "sigla": "UNIPAMPA",
            "nome": "Universidade Federal do Pampa",
            "id": 3093,
            "slug": "unipampa-rs"
          }
        ],
        "anos": [
          2026
        ],
        "tiposProva": [
          1
        ],
        "ultimoAno": {
          "rank": 2026,
          "stamp": "2026-01-01 00:00:00"
        },
        "tipo": "multipla escolha",
        "enunciado_clean": "No contexto de uma organizaГѓВ§ГѓВЈo pГѓВєblica submetida a pressГѓВµes simultГѓВўneas por legalidade, eficiГѓВЄncia e entrega de valor pГѓВєblico, a alta administraГѓВ§ГѓВЈo instituiu um ciclo contГѓВ­nuo de gestГѓВЈo baseado na definiГѓВ§ГѓВЈo de objetivos estratГѓВ©gicos, na reconfiguraГѓВ§ГѓВЈo das estruturas internas, no alinhamento das pessoas ГѓВ s diretrizes institucionais e na mensuraГѓВ§ГѓВЈo sistemГѓВЎtica dos resultados. Ao longo do processo, ajustes sucessivos foram realizados, tanto nos meios utilizados quanto nos prГѓВіprios objetivos inicialmente estabelecidos, em resposta a mudanГѓВ§as no ambiente organizacional e ГѓВ s avaliaГѓВ§ГѓВµes de desempenho. Гѓв‚¬ luz das funГѓВ§ГѓВµes administrativas clГѓВЎssicas e de sua abordagem contemporГѓВўnea, assinale a alternativa CORRETA.",
        "hash": "addd757b0b3340e2ab974885eaa53717",
        "hasImage": false,
        "hasImageItens": false,
        "provas": [
          {
            "tipo": 1,
            "orgao": {
              "esfera": "Estadual",
              "uf": "RS",
              "sigla": "UNIPAMPA",
              "nome": "Universidade Federal do Pampa",
              "id": 3093,
              "slug": "unipampa-rs"
            },
            "ano": 2026,
            "index": "prova-1.17.0-5",
            "nome": "ACCESS - UNIPAMPA - Assistente em AdministraГѓВ§ГѓВЈo - 2026",
            "id": 256747,
            "cargo": {
              "id": 6708,
              "slug": "assistente-em-administracao",
              "descricao": "Assistente em AdministraГѓВ§ГѓВЈo"
            },
            "nivel": "MГѓВ©dio",
            "slug": "unipampa-rs-2026-access-assistente-em-administracao",
            "banca": {
              "oab": false,
              "sigla": "ACCESS",
              "nome": "Instituto ACCESS",
              "id": 5,
              "slug": "access",
              "descricao": "Instituto ACCESS - ACCESS"
            }
          }
        ],
        "comentarios": {
          "ia": true,
          "professor": true,
          "professorVideo": false,
          "aluno": true,
          "totalAlunos": 1,
          "totalProfessores": 1
        },
        "timestamp": "2026-03-20 11:11:45",
        "carreiras": [
          {
            "nome": "Outras",
            "id": 28,
            "descricao": "Cargos diversos que nГѓВЈo se enquadrem em nenhuma outra categoria"
          }
        ],
        "areas": [],
        "dadosQuestaoDiscursiva": [],
        "id": 4309610,
        "hashId": "71593751da322053988973fd9dc3f470a8c91aec7ebb8246b123fdbe44810337",
        "enunciado": "<p style=\"text-align: justify;\">No contexto de uma organizaГѓВ§ГѓВЈo pГѓВєblica submetida a pressГѓВµes simultГѓВўneas por legalidade, eficiГѓВЄncia e entrega de valor pГѓВєblico, a alta administraГѓВ§ГѓВЈo instituiu um ciclo contГѓВ­nuo de gestГѓВЈo baseado na definiГѓВ§ГѓВЈo de objetivos estratГѓВ©gicos, na reconfiguraГѓВ§ГѓВЈo das estruturas internas, no alinhamento das pessoas ГѓВ s diretrizes institucionais e na mensuraГѓВ§ГѓВЈo sistemГѓВЎtica dos resultados. Ao longo do processo, ajustes sucessivos foram realizados, tanto nos meios utilizados quanto nos prГѓВіprios objetivos inicialmente estabelecidos, em resposta a mudanГѓВ§as no ambiente organizacional e ГѓВ s avaliaГѓВ§ГѓВµes de desempenho. Гѓв‚¬ luz das funГѓВ§ГѓВµes administrativas clГѓВЎssicas e de sua abordagem contemporГѓВўnea, assinale a alternativa CORRETA.</p>",
        "resposta": 17670258,
        "anulada": false,
        "rotulo": 31,
        "desatualizada": false,
        "itens": [
          {
            "corpo": "<p style=\"text-align: justify;\">A organizaГѓВ§ГѓВЈo, por definir a estrutura formal e a distribuiГѓВ§ГѓВЈo de competГѓВЄncias, constitui etapa estanque do processo administrativo, nГѓВЈo sofrendo influГѓВЄncia da direГѓВ§ГѓВЈo nem dos mecanismos de controle.</p>",
            "corpo_clean": "A organizaГѓВ§ГѓВЈo, por definir a estrutura formal e a distribuiГѓВ§ГѓВЈo de competГѓВЄncias, constitui etapa estanque do processo administrativo, nГѓВЈo sofrendo influГѓВЄncia da direГѓВ§ГѓВЈo nem dos mecanismos de controle.",
            "ordem": 1,
            "rotulo": "A    ",
            "id": 17670256
          },
          {
            "corpo": "<p style=\"text-align: justify;\">O controle, por envolver mensuraГѓВ§ГѓВЈo e avaliaГѓВ§ГѓВЈo de resultados, deve incidir exclusivamente sobre a execuГѓВ§ГѓВЈo das atividades, nГѓВЈo podendo retroalimentar o planejamento sem comprometer a estabilidade administrativa.</p>",
            "corpo_clean": "O controle, por envolver mensuraГѓВ§ГѓВЈo e avaliaГѓВ§ГѓВЈo de resultados, deve incidir exclusivamente sobre a execuГѓВ§ГѓВЈo das atividades, nГѓВЈo podendo retroalimentar o planejamento sem comprometer a estabilidade administrativa.",
            "ordem": 2,
            "rotulo": "B    ",
            "id": 17670257
          },
          {
            "corpo": "<p style=\"text-align: justify;\">As funГѓВ§ГѓВµes administrativas compГѓВµem um sistema integrado e dinГѓВўmico, no qual o controle retroalimenta o planejamento, a organizaГѓВ§ГѓВЈo fornece os meios estruturais para a execuГѓВ§ГѓВЈo das estratГѓВ©gias e a direГѓВ§ГѓВЈo promove o alinhamento das pessoas aos objetivos institucionais, permitindo ajustes contГѓВ­nuos orientados aos resultados.</p>",
            "corpo_clean": "As funГѓВ§ГѓВµes administrativas compГѓВµem um sistema integrado e dinГѓВўmico, no qual o controle retroalimenta o planejamento, a organizaГѓВ§ГѓВЈo fornece os meios estruturais para a execuГѓВ§ГѓВЈo das estratГѓВ©gias e a direГѓВ§ГѓВЈo promove o alinhamento das pessoas aos objetivos institucionais, permitindo ajustes contГѓВ­nuos orientados aos resultados.",
            "ordem": 3,
            "rotulo": "C    ",
            "id": 17670258
          },
          {
            "corpo": "<p style=\"text-align: justify;\">O planejamento possui natureza estritamente normativa e antecedente, razГѓВЈo pela qual nГѓВЈo admite revisГѓВµes durante a execuГѓВ§ГѓВЈo, sob pena de descaracterizar a previsibilidade e a racionalidade da aГѓВ§ГѓВЈo administrativa.</p>",
            "corpo_clean": "O planejamento possui natureza estritamente normativa e antecedente, razГѓВЈo pela qual nГѓВЈo admite revisГѓВµes durante a execuГѓВ§ГѓВЈo, sob pena de descaracterizar a previsibilidade e a racionalidade da aГѓВ§ГѓВЈo administrativa.",
            "ordem": 4,
            "rotulo": "D    ",
            "id": 17670259
          }
        ],
        "grupoQuestao": {
          "enunciado_clean": "",
          "id": 838385,
          "enunciado": "",
          "rotulo": null,
          "texto": null,
          "descricao": "31 a 50",
          "ordem": 31
        },
        "assuntos": [
          {
            "nome_clean": "AdministraГѓВ§ГѓВЈo Geral",
            "oab": false,
            "assunto_raiz": 404571,
            "pai": null,
            "palavrasChave": [
              "NoГѓВ§ГѓВµes de administraГѓВ§ГѓВЈo pГѓВєblica",
              "GestГѓВЈo de pessoas",
              "CONTEГѓЕЎDO ESPECГѓВЌFICO",
              "PolГѓВ­ticas PГѓВєblicas",
              "GestГѓВЈo PГѓВєblica; NoГѓВ§ГѓВµes de AdministraГѓВ§ГѓВЈo PГѓВєblcia",
              "Direito Civil",
              "Direito Civil e Empresarial",
              "Vendas e negociaГѓВ§ГѓВЈo",
              "LegislaГѓВ§ГѓВЈo Esparsa",
              "Conhecimentos especГѓВ­ficos da ГѓВЎrea",
              "Controles Internos, GovernanГѓВ§a e GestГѓВЈo de Risco",
              "MГѓВіdulo II",
              "Conhecimentos especГѓВ­ficos",
              "NoГѓВ§ГѓВµes de administraГѓВ§ГѓВЈo",
              "NoГѓВ§ГѓВµes Gerais de Direito e FormaГѓВ§ГѓВЈo HumanГѓВ­stica",
              "Controladoria",
              "Sociologia do Direito",
              "Direito Administrativo",
              "AdministraГѓВ§ГѓВЈo PГѓВєblica",
              "Direito Empresarial"
            ],
            "nome": "AdministraГѓВ§ГѓВЈo Geral",
            "materia": true,
            "id": 404571,
            "slug": "administracao-geral-404571"
          },
          {
            "nome_clean": "Processo organizacional (PODC)",
            "oab": false,
            "assunto_raiz": 404571,
            "pai": 404572,
            "palavrasChave": [],
            "nome": "Processo organizacional (PODC)",
            "materia": false,
            "id": 404674,
            "slug": "administracao-geral-processo-organizacional-podc-404674"
          }
        ],
        "slug": "administracao-geral-404571/4309610",
        "nivel": {
          "acertos": null,
          "erros": null,
          "total": null,
          "total10dias": null,
          "nivel": 1,
          "dataAlteracao": null
        },
        "questaoDiscursiva": null,
        "index": "questao-1.14.1-5",
        "resolvida": false
      },
      {
        "dificuldade": 1,
        "bancas": [
          {
            "oab": false,
            "sigla": "Instituto CONSULPAM",
            "nome": "Consultoria PГѓВєblico-Privada",
            "id": 916,
            "slug": "instituto-consulpam-916",
            "descricao": "Consultoria PГѓВєblico-Privada - Instituto CONSULPAM"
          }
        ],
        "cargos": [
          {
            "id": 290,
            "slug": "analista-area-administracao",
            "descricao": "Analista - ГѓВЃrea: AdministraГѓВ§ГѓВЈo"
          }
        ],
        "orgaos": [
          {
            "esfera": "Municipal",
            "uf": "CE",
            "sigla": "",
            "nome": "Prefeitura de EusГѓВ©bio",
            "id": 2994,
            "slug": "prefeitura-de-eusebio-ce"
          }
        ],
        "anos": [
          2026
        ],
        "tiposProva": [
          1
        ],
        "ultimoAno": {
          "rank": 2026,
          "stamp": "2026-01-01 00:00:00"
        },
        "tipo": "multipla escolha",
        "enunciado_clean": "Acerca da evoluГѓВ§ГѓВЈo da Teoria Geral da AdministraГѓВ§ГѓВЈo, abrangendo as abordagens clГѓВЎssica, cientГѓВ­fica e moderna, assinale a alternativa CORRETA:",
        "hash": "c9be674d9c994a08b5e76781cbcbc0d1",
        "hasImage": false,
        "hasImageItens": false,
        "provas": [
          {
            "tipo": 1,
            "orgao": {
              "esfera": "Municipal",
              "uf": "CE",
              "sigla": "",
              "nome": "Prefeitura de EusГѓВ©bio",
              "id": 2994,
              "slug": "prefeitura-de-eusebio-ce"
            },
            "ano": 2026,
            "index": "prova-1.17.0-5",
            "nome": "Instituto CONSULPAM - Prefeitura de EusГѓВ©bio - Analista - ГѓВЃrea: AdministraГѓВ§ГѓВЈo - 2026",
            "id": 263246,
            "cargo": {
              "id": 290,
              "slug": "analista-area-administracao",
              "descricao": "Analista - ГѓВЃrea: AdministraГѓВ§ГѓВЈo"
            },
            "nivel": "Superior",
            "slug": "prefeitura-de-eusebio-ce-2026-instituto-consulpam-916-analista-area-administracao",
            "banca": {
              "oab": false,
              "sigla": "Instituto CONSULPAM",
              "nome": "Consultoria PГѓВєblico-Privada",
              "id": 916,
              "slug": "instituto-consulpam-916",
              "descricao": "Consultoria PГѓВєblico-Privada - Instituto CONSULPAM"
            }
          }
        ],
        "comentarios": {
          "ia": true,
          "professor": false,
          "professorVideo": false,
          "aluno": false,
          "totalAlunos": 0,
          "totalProfessores": 0
        },
        "timestamp": "2026-03-20 08:02:57",
        "carreiras": [
          {
            "nome": "Outras",
            "id": 28,
