{
  "message": {
    "text": "OK",
    "type": "info",
    "slug": "OK"
  },
  "pagination": true,
  "data": {
    "total": 803,
    "perPage": "50",
    "pages": 17,
    "page": 1,
    "rows": [
      {
        "nome": "Instituto Nacional de Gestão, Educação, Tecnologia e Inovação",
        "descricao": "INGETI - Instituto Nacional de Gestão, Educação, Tecnologia e Inovação",
        "sigla": "INGETI",
        "oab": false,
        "inedita": false,
        "timestamp": "2024-12-24 16:04:43",
        "maisBuscado": null,
        "tiposProva": [
          1
        ],
        "id": 1152,
        "maisBuscadoPosicao": null,
        "qtdConcursos": 1,
        "qtdProvas": 1,
        "qtdQuestoes": 20,
        "qtdComentarios": 1,
        "slug": "ingeti",
        "index": "banca-1.11.0-3"
      },
      {
        "nome": "Assessoria e Gestão Integrada em Recursos Humanos S/C Ltda. ME",
        "descricao": "Assessoria e Gestão Integrada em Recursos Humanos S/C Ltda. ME - AGIRH",
        "sigla": "AGIRH",
        "oab": false,
        "inedita": false,
        "timestamp": "2024-12-24 16:04:43",
        "maisBuscado": null,
        "tiposProva": [
          1
        ],
        "id": 1153,
        "maisBuscadoPosicao": null,
        "qtdConcursos": 17,
        "qtdProvas": 178,
        "qtdQuestoes": 2815,
        "qtdComentarios": 156,
        "slug": "agirh",
        "index": "banca-1.11.0-3"
      },
      {
        "nome": "Comissão Permanente de Vestibular da Universidade Federal de Santa Maria",
        "descricao": "Comissão Permanente de Vestibular da Universidade Federal de Santa Maria - COPERVE-UFSM",
        "sigla": "COPERVE UFSM",
        "oab": false,
        "inedita": false,
        "timestamp": "2024-12-24 16:04:43",
        "maisBuscado": null,
        "tiposProva": [
          1
        ],
        "id": 1162,
        "maisBuscadoPosicao": null,
        "qtdConcursos": 4,
        "qtdProvas": 18,
        "qtdQuestoes": 590,
        "qtdComentarios": 5,
        "slug": "coperve-ufsm",
        "index": "banca-1.11.0-3"
      },
      {
        "nome": "Procuradoria-Geral do Estado do Rio de Janeiro",
        "descricao": "Procuradoria-Geral do Estado do Rio de Janeiro",
        "sigla": "PGE RJ",
        "oab": false,
        "inedita": false,
        "timestamp": "2024-12-24 16:04:43",
        "maisBuscado": null,
        "tiposProva": [
          1
        ],
        "id": 1177,
        "maisBuscadoPosicao": null,
        "qtdConcursos": 1,
        "qtdProvas": 1,
        "qtdQuestoes": 50,
        "qtdComentarios": 1,
        "slug": "pge-rj",
        "index": "banca-1.11.0-3"
      },
      {
        "nome": "GS ASSESSORIA E CONSULTORIA",
        "descricao": "GS ASSESSORIA E CONSULTORIA - GS",
        "sigla": "GS",
        "oab": false,
        "inedita": false,
        "timestamp": "2024-12-24 16:04:43",
        "maisBuscado": null,
        "tiposProva": [
          1
        ],
        "id": 1181,
        "maisBuscadoPosicao": null,
        "qtdConcursos": 22,
        "qtdProvas": 149,
        "qtdQuestoes": 2985,
        "qtdComentarios": 316,
        "slug": "gs",
        "index": "banca-1.11.0-3"
      },
      {
        "nome": "INDEPAC",
        "descricao": "INDEPAC",
        "sigla": "",
        "oab": false,
        "inedita": false,
        "timestamp": "2024-12-24 16:04:43",
        "maisBuscado": null,
        "tiposProva": [
          1,
          2
        ],
        "id": 1185,
        "maisBuscadoPosicao": null,
        "qtdConcursos": 3,
        "qtdProvas": 7,
        "qtdQuestoes": 400,
        "qtdComentarios": 10,
        "slug": "indepac",
        "index": "banca-1.11.0-3"
      },
      {
        "nome": "EDUSERV - Educação, Consultoria, Eventos e Serviços Ltda",
        "descricao": "EDUSERV - Educação, Consultoria, Eventos e Serviços Ltda - EDUSERV",
        "sigla": "EDUSERV",
        "oab": false,
        "inedita": false,
        "timestamp": "2024-12-24 16:04:43",
        "maisBuscado": null,
        "tiposProva": [
          1
        ],
        "id": 1191,
        "maisBuscadoPosicao": null,
        "qtdConcursos": 1,
        "qtdProvas": 1,
        "qtdQuestoes": 60,
        "qtdComentarios": 1,
        "slug": "eduserv",
        "index": "banca-1.11.0-3"
      },
      {
        "nome": "Instituto Brasileiro Educar Conquista",
        "descricao": "Instituto Brasileiro Educar Conquista - IBEC",
        "sigla": "IBEC",
        "oab": false,
        "inedita": false,
        "timestamp": "2024-12-24 16:04:43",
        "maisBuscado": null,
        "tiposProva": [
          1
        ],
        "id": 1197,
        "maisBuscadoPosicao": null,
        "qtdConcursos": 4,
        "qtdProvas": 5,
        "qtdQuestoes": 150,
        "qtdComentarios": 23,
        "slug": "ibec",
        "index": "banca-1.11.0-3"
      },
      {
        "nome": "Comissão Executiva do Vestibular da Universidade Regional do Cariri",
        "descricao": "Comissão Executiva do Vestibular da Universidade Regional do Cariri - CEV - URCA",
        "sigla": "CEV URCA",
        "oab": false,
        "inedita": false,
        "timestamp": "2024-12-24 16:04:43",
        "maisBuscado": null,
        "tiposProva": [
          1
        ],
        "id": 1200,
        "maisBuscadoPosicao": null,
        "qtdConcursos": 7,
        "qtdProvas": 185,
        "qtdQuestoes": 5388,
        "qtdComentarios": 78,
        "slug": "cev-urca",
        "index": "banca-1.11.0-3"
      },
      {
        "nome": "COREMU - UNIFESP",
        "descricao": "COREMU - UNIFESP",
        "sigla": "",
        "oab": false,
        "inedita": false,
        "timestamp": "2024-12-24 16:04:43",
        "maisBuscado": null,
        "tiposProva": [
          1
        ],
        "id": 1211,
        "maisBuscadoPosicao": null,
        "qtdConcursos": 2,
        "qtdProvas": 5,
        "qtdQuestoes": 240,
        "qtdComentarios": 10,
        "slug": "coremu-unifesp",
        "index": "banca-1.11.0-3"
      },
      {
        "nome": "JBO - Soluções Administrativas e Concursos",
        "descricao": "JBO - Soluções Administrativas e Concursos - JBO",
        "sigla": "JBO",
        "oab": false,
        "inedita": false,
        "timestamp": "2024-12-24 16:04:43",
        "maisBuscado": null,
        "tiposProva": [
          1
        ],
        "id": 1218,
        "maisBuscadoPosicao": null,
        "qtdConcursos": 1,
        "qtdProvas": 3,
        "qtdQuestoes": 100,
        "qtdComentarios": 16,
        "slug": "jbo",
        "index": "banca-1.11.0-3"
      },
      {
        "nome": "Colégio Militar de Salvador",
        "descricao": "Colégio Militar de Salvador",
        "sigla": "",
        "oab": false,
        "inedita": false,
        "timestamp": "2024-12-24 16:04:43",
        "maisBuscado": null,
        "tiposProva": [
          1
        ],
        "id": 1230,
        "maisBuscadoPosicao": null,
        "qtdConcursos": 4,
        "qtdProvas": 10,
        "qtdQuestoes": 200,
        "qtdComentarios": 2,
        "slug": "colegio-militar-de-salvador",
        "index": "banca-1.11.0-3"
      },
      {
        "nome": "Fênix Concursos",
        "descricao": "Fênix Concursos - Fênix",
        "sigla": "Fenix",
        "oab": false,
        "inedita": false,
        "timestamp": "2024-12-24 16:04:43",
        "maisBuscado": null,
        "tiposProva": [
          1
        ],
        "id": 1236,
        "maisBuscadoPosicao": null,
        "qtdConcursos": 4,
        "qtdProvas": 0,
        "qtdQuestoes": 0,
        "qtdComentarios": 0,
        "slug": "fenix",
        "index": "banca-1.11.0-3"
      },
      {
        "nome": "We Do Serviços",
        "descricao": "We Do Serviços- We Do",
        "sigla": "We Do",
        "oab": false,
        "inedita": false,
        "timestamp": "2024-12-24 16:04:43",
        "maisBuscado": null,
        "tiposProva": [
          1
        ],
        "id": 1237,
        "maisBuscadoPosicao": null,
        "qtdConcursos": 0,
        "qtdProvas": 0,
        "qtdQuestoes": 0,
        "qtdComentarios": 0,
        "slug": "we-do",
        "index": "banca-1.11.0-3"
      },
      {
        "nome": "Associação Brasileira de Concursos Públicos",
        "descricao": "Associação Brasileira de Concursos Públicos - ABCP",
        "sigla": "ABCP",
        "oab": false,
        "inedita": false,
        "timestamp": "2024-12-24 16:04:43",
        "maisBuscado": null,
        "tiposProva": [
          1
        ],
        "id": 1260,
        "maisBuscadoPosicao": null,
        "qtdConcursos": 6,
        "qtdProvas": 9,
        "qtdQuestoes": 370,
        "qtdComentarios": 8,
        "slug": "abcp",
        "index": "banca-1.11.0-3"
      },
      {
        "nome": "Prefeitura de Santana do Deserto",
        "descricao": "Prefeitura de Santana do Deserto",
        "sigla": "",
        "oab": false,
        "inedita": false,
        "timestamp": "2024-12-24 16:04:44",
        "maisBuscado": null,
        "tiposProva": [
          1
        ],
        "id": 1275,
        "maisBuscadoPosicao": null,
        "qtdConcursos": 2,
        "qtdProvas": 4,
        "qtdQuestoes": 70,
        "qtdComentarios": 17,
        "slug": "prefeitura-de-santana-do-deserto",
        "index": "banca-1.11.0-3"
      },
      {
        "nome": "Fundação de Apoio a Universidade Municipal de São Caetano do Sul",
        "descricao": "Fundação de Apoio a Universidade Municipal de São Caetano do Sul - FAUSCS",
        "sigla": "FAUSCS",
        "oab": false,
        "inedita": false,
        "timestamp": "2024-12-24 16:04:44",
        "maisBuscado": null,
        "tiposProva": [
          1
        ],
        "id": 1298,
        "maisBuscadoPosicao": null,
        "qtdConcursos": 1,
        "qtdProvas": 2,
        "qtdQuestoes": 80,
        "qtdComentarios": 15,
        "slug": "fauscs",
        "index": "banca-1.11.0-3"
      },
      {
        "nome": "Conselho Regional de Serviço Social da 7ª Região",
        "descricao": "Conselho Regional de Serviço Social da 7ª Região - CRESS RJ",
        "sigla": "CRESS RJ",
        "oab": false,
        "inedita": false,
        "timestamp": "2024-12-24 16:04:43",
        "maisBuscado": null,
        "tiposProva": [
          1
        ],
        "id": 1499,
        "maisBuscadoPosicao": null,
        "qtdConcursos": 0,
        "qtdProvas": 0,
        "qtdQuestoes": 0,
        "qtdComentarios": 0,
        "slug": "cress-rj",
        "index": "banca-1.11.0-3"
      },
      {
        "nome": "Fundação de Apoio ao Desenvolvimento Científico do Vale do Piquiri",
        "descricao": "Fundação de Apoio ao Desenvolvimento Científico do Vale do Piquiri - FADCT",
        "sigla": "FADCT",
        "oab": false,
        "inedita": false,
        "timestamp": "2024-12-24 16:04:43",
        "maisBuscado": null,
        "tiposProva": [
          1
        ],
        "id": 1500,
        "maisBuscadoPosicao": null,
        "qtdConcursos": 1,
        "qtdProvas": 10,
        "qtdQuestoes": 230,
        "qtdComentarios": 0,
        "slug": "fadct",
        "index": "banca-1.11.0-3"
      },
      {
        "nome": "Consórcio Público Intermunicipal do Agreste Pernambucano e Fronteiras",
        "descricao": "Consórcio Público Intermunicipal do Agreste Pernambucano e Fronteiras",
        "sigla": "CONIAPE",
        "oab": false,
        "inedita": false,
        "timestamp": "2024-12-24 16:04:43",
        "maisBuscado": null,
        "tiposProva": [
          1
        ],
        "id": 1501,
        "maisBuscadoPosicao": null,
        "qtdConcursos": 0,
        "qtdProvas": 0,
        "qtdQuestoes": 0,
        "qtdComentarios": 0,
        "slug": "coniape",
        "index": "banca-1.11.0-3"
      },
      {
        "nome": "GR Consultoria e Assessoria",
        "descricao": "GR Consultoria e Assessoria",
        "sigla": "",
        "oab": false,
        "inedita": false,
        "timestamp": "2024-12-24 16:04:43",
        "maisBuscado": null,
        "tiposProva": [
          1
        ],
        "id": 1516,
        "maisBuscadoPosicao": null,
        "qtdConcursos": 0,
        "qtdProvas": 0,
        "qtdQuestoes": 0,
        "qtdComentarios": 0,
        "slug": "gr-consultoria-e-assessoria",
        "index": "banca-1.11.0-3"
      },
      {
        "nome": "Prefeitura de Xanxerê",
        "descricao": "Prefeitura de Xanxerê",
        "sigla": "",
        "oab": false,
        "inedita": false,
        "timestamp": "2024-12-24 16:04:44",
        "maisBuscado": null,
        "tiposProva": [
          1
        ],
        "id": 1551,
        "maisBuscadoPosicao": null,
        "qtdConcursos": 0,
        "qtdProvas": 0,
        "qtdQuestoes": 0,
        "qtdComentarios": 0,
        "slug": "prefeitura-de-xanxere",
        "index": "banca-1.11.0-3"
      },
      {
        "nome": "Prefeitura de Catas Altas",
        "descricao": "Prefeitura de Catas Altas",
        "sigla": "",
        "oab": false,
        "inedita": false,
        "timestamp": "2024-12-24 16:04:44",
        "maisBuscado": null,
        "tiposProva": [
          1
        ],
        "id": 1557,
        "maisBuscadoPosicao": null,
        "qtdConcursos": 0,
        "qtdProvas": 0,
        "qtdQuestoes": 0,
        "qtdComentarios": 0,
        "slug": "prefeitura-de-catas-altas",
        "index": "banca-1.11.0-3"
      },
      {
        "nome": "Instituto Social da Cidadania - Juscelino Kubitschek",
        "descricao": "Instituto Social da Cidadania - Juscelino Kubitschek - Instituto JK",
        "sigla": "Instituto JK",
        "oab": false,
        "inedita": false,
        "timestamp": "2024-12-24 16:04:44",
        "maisBuscado": null,
        "tiposProva": [
          1
        ],
        "id": 1606,
        "maisBuscadoPosicao": null,
        "qtdConcursos": 0,
        "qtdProvas": 0,
        "qtdQuestoes": 0,
        "qtdComentarios": 0,
        "slug": "instituto-jk",
        "index": "banca-1.11.0-3"
      },
      {
        "nome": "Prefeitura de São Roque",
        "descricao": "Prefeitura de São Roque",
        "sigla": "",
        "oab": false,
        "inedita": false,
        "timestamp": "2024-12-24 16:04:44",
        "maisBuscado": null,
        "tiposProva": [
          1
        ],
        "id": 1612,
        "maisBuscadoPosicao": null,
        "qtdConcursos": 0,
        "qtdProvas": 0,
        "qtdQuestoes": 0,
        "qtdComentarios": 0,
        "slug": "prefeitura-de-sao-roque",
        "index": "banca-1.11.0-3"
      },
      {
        "nome": "Comissão Executiva do Vestibular da Universidade Estadual do Ceará",
        "descricao": "Comissão Executiva do Vestibular da Universidade Estadual do Ceará -CEV / UECE",
        "sigla": "CEV UECE",
        "oab": false,
        "inedita": false,
        "timestamp": "2024-12-24 16:04:44",
        "maisBuscado": null,
        "tiposProva": [
          1
        ],
        "id": 1619,
        "maisBuscadoPosicao": null,
        "qtdConcursos": 0,
        "qtdProvas": 0,
        "qtdQuestoes": 0,
        "qtdComentarios": 0,
        "slug": "cev-uece",
        "index": "banca-1.11.0-3"
      },
      {
        "nome": "Instituto Seletiva",
        "descricao": "Instituto Seletiva",
        "sigla": "",
        "oab": false,
        "inedita": false,
        "timestamp": "2024-12-24 16:04:44",
        "maisBuscado": null,
        "tiposProva": [
          1
        ],
        "id": 1620,
        "maisBuscadoPosicao": null,
        "qtdConcursos": 0,
        "qtdProvas": 0,
        "qtdQuestoes": 0,
        "qtdComentarios": 0,
        "slug": "instituto-seletiva",
        "index": "banca-1.11.0-3"
      },
      {
        "nome": "Prefeitura de Botelhos",
        "descricao": "Prefeitura de Botelhos",
        "sigla": "",
        "oab": false,
        "inedita": false,
        "timestamp": "2024-12-24 16:04:44",
        "maisBuscado": null,
        "tiposProva": [
          1
        ],
        "id": 1622,
        "maisBuscadoPosicao": null,
        "qtdConcursos": 0,
        "qtdProvas": 0,
        "qtdQuestoes": 0,
        "qtdComentarios": 0,
        "slug": "prefeitura-de-botelhos",
        "index": "banca-1.11.0-3"
      },
      {
        "nome": "Fundação de Cultura e Apoio ao Ensino Pesquisa e Extensão",
        "descricao": "Fundação de Cultura e Apoio ao Ensino Pesquisa e Extensão- FUNCEPE",
        "sigla": "FUNCEPE",
        "oab": false,
        "inedita": false,
        "timestamp": "2024-12-24 16:04:44",
        "maisBuscado": null,
        "tiposProva": [
          1
        ],
        "id": 1625,
        "maisBuscadoPosicao": null,
        "qtdConcursos": 0,
        "qtdProvas": 0,
        "qtdQuestoes": 0,
        "qtdComentarios": 0,
        "slug": "funcepe",
        "index": "banca-1.11.0-3"
      },
      {
        "nome": "Prefeitura de Arenápolis",
        "descricao": "Prefeitura de Arenápolis",
        "sigla": "",
        "oab": false,
        "inedita": false,
        "timestamp": "2024-12-24 16:04:43",
        "maisBuscado": null,
        "tiposProva": [
          1
        ],
        "id": 1318,
        "maisBuscadoPosicao": null,
        "qtdConcursos": 1,
        "qtdProvas": 8,
        "qtdQuestoes": 145,
        "qtdComentarios": 43,
        "slug": "prefeitura-de-arenapolis",
        "index": "banca-1.11.0-3"
      },
      {
        "nome": "ETHOS Concursos Públicos",
        "descricao": "ETHOS Concursos Públicos",
        "sigla": "",
        "oab": false,
        "inedita": false,
        "timestamp": "2024-12-24 16:04:43",
        "maisBuscado": null,
        "tiposProva": [
          1
        ],
        "id": 1324,
        "maisBuscadoPosicao": null,
        "qtdConcursos": 6,
        "qtdProvas": 22,
        "qtdQuestoes": 360,
        "qtdComentarios": 0,
        "slug": "ethos-concursos-publicos",
        "index": "banca-1.11.0-3"
      },
      {
        "nome": "SENAI - Serviço Nacional de Aprendizagem Industrial - Departamento Regional do Paraná – Unidade de Foz do Iguaçu",
        "descricao": "SENAI - Serviço Nacional de Aprendizagem Industrial - Departamento Regional do Paraná – Unidade de Foz do Iguaçu",
        "sigla": "",
        "oab": false,
        "inedita": false,
        "timestamp": "2024-12-24 16:04:43",
        "maisBuscado": null,
        "tiposProva": [
          1
        ],
        "id": 1325,
        "maisBuscadoPosicao": null,
        "qtdConcursos": 1,
        "qtdProvas": 1,
        "qtdQuestoes": 40,
        "qtdComentarios": 0,
        "slug": "senai-servico-nacional-de-aprendizagem-industrial-departamento-regional-do-parana-unidade-de-foz-do-iguacu",
        "index": "banca-1.11.0-3"
      },
      {
        "nome": "Instituto Unicampo",
        "descricao": "Instituto Unicampo",
        "sigla": "",
        "oab": false,
        "inedita": false,
        "timestamp": "2024-12-24 16:04:43",
        "maisBuscado": null,
        "tiposProva": [
          1
        ],
        "id": 1337,
        "maisBuscadoPosicao": null,
        "qtdConcursos": 1,
        "qtdProvas": 2,
        "qtdQuestoes": 35,
        "qtdComentarios": 0,
        "slug": "instituto-unicampo",
        "index": "banca-1.11.0-3"
      },
      {
        "nome": "Instituto Agos",
        "descricao": "Instituto Agos",
        "sigla": "",
        "oab": false,
        "inedita": false,
        "timestamp": "2024-12-24 16:04:43",
        "maisBuscado": null,
        "tiposProva": [
          1
        ],
        "id": 1349,
        "maisBuscadoPosicao": null,
        "qtdConcursos": 1,
        "qtdProvas": 1,
        "qtdQuestoes": 75,
        "qtdComentarios": 4,
        "slug": "instituto-agos",
        "index": "banca-1.11.0-3"
      },
      {
        "nome": "Corpo de Bombeiros Militar do Mato Grosso do Sul",
        "descricao": "Corpo de Bombeiros Militar do Mato Grosso do Sul - CBM MS",
        "sigla": "CBM MS",
        "oab": false,
        "inedita": false,
        "timestamp": "2024-12-24 16:04:43",
        "maisBuscado": null,
        "tiposProva": [
          1
        ],
        "id": 1366,
        "maisBuscadoPosicao": null,
        "qtdConcursos": 1,
        "qtdProvas": 1,
        "qtdQuestoes": 80,
        "qtdComentarios": 1,
        "slug": "cbm-ms",
        "index": "banca-1.11.0-3"
      },
      {
        "nome": "Fundação Centro Estadual de Estatísticas, Pesquisas e Formação de Servidores Públicos do Rio de Janeiro",
        "descricao": "Fundação Centro Estadual de Estatísticas, Pesquisas e Formação de Servidores Públicos do Rio de Janeiro - CEPERJ",
        "sigla": "CEPERJ",
        "oab": false,
        "inedita": false,
        "timestamp": "2024-12-24 16:04:43",
        "maisBuscado": null,
        "tiposProva": [
          1,
          2
        ],
        "id": 1367,
        "maisBuscadoPosicao": null,
        "qtdConcursos": 11,
        "qtdProvas": 83,
        "qtdQuestoes": 3790,
        "qtdComentarios": 74,
        "slug": "ceperj",
        "index": "banca-1.11.0-3"
      },
      {
        "nome": "Prefeitura de Indaial",
        "descricao": "Prefeitura de Indaial",
        "sigla": "",
        "oab": false,
        "inedita": false,
        "timestamp": "2024-12-24 16:04:43",
        "maisBuscado": null,
        "tiposProva": [
          1
        ],
        "id": 1372,
        "maisBuscadoPosicao": null,
        "qtdConcursos": 1,
        "qtdProvas": 1,
        "qtdQuestoes": 30,
        "qtdComentarios": 7,
        "slug": "prefeitura-de-indaial",
        "index": "banca-1.11.0-3"
      },
      {
        "nome": "Instituto Federal de Educação, Ciência e Tecnologia de Roraima",
        "descricao": "Instituto Federal de Educação, Ciência e Tecnologia de Roraima - IFRR",
        "sigla": "IFRR",
        "oab": false,
        "inedita": false,
        "timestamp": "2024-12-24 16:04:43",
        "maisBuscado": null,
        "tiposProva": [
          1
        ],
        "id": 1375,
        "maisBuscadoPosicao": null,
        "qtdConcursos": 1,
        "qtdProvas": 8,
        "qtdQuestoes": 165,
        "qtdComentarios": 1,
        "slug": "ifrr",
        "index": "banca-1.11.0-3"
      },
      {
        "nome": "HL Processos Seletivos e Concursos",
        "descricao": "HL Processos Seletivos e Concursos",
        "sigla": "",
        "oab": false,
        "inedita": false,
        "timestamp": "2024-12-24 16:04:43",
        "maisBuscado": null,
        "tiposProva": [
          1
        ],
        "id": 1378,
        "maisBuscadoPosicao": null,
        "qtdConcursos": 2,
        "qtdProvas": 6,
        "qtdQuestoes": 105,
        "qtdComentarios": 0,
        "slug": "hl-processos-seletivos-e-concursos",
        "index": "banca-1.11.0-3"
      },
      {
        "nome": "Universidade do Vale do Itajaí",
        "descricao": "Universidade do Vale do Itajaí - UNIVALI",
        "sigla": "UNIVALI",
        "oab": false,
        "inedita": false,
        "timestamp": "2024-12-24 16:04:43",
        "maisBuscado": null,
        "tiposProva": [
          1
        ],
        "id": 1379,
        "maisBuscadoPosicao": null,
        "qtdConcursos": 2,
        "qtdProvas": 13,
        "qtdQuestoes": 377,
        "qtdComentarios": 27,
        "slug": "univali",
        "index": "banca-1.11.0-3"
      },
      {
        "nome": "Creative Group",
        "descricao": "Creative Group",
        "sigla": "",
        "oab": false,
        "inedita": false,
        "timestamp": "2024-12-24 16:04:43",
        "maisBuscado": null,
        "tiposProva": [
          1
        ],
        "id": 1384,
        "maisBuscadoPosicao": null,
        "qtdConcursos": 1,
        "qtdProvas": 7,
        "qtdQuestoes": 213,
        "qtdComentarios": 20,
        "slug": "creative-group",
        "index": "banca-1.11.0-3"
      },
      {
        "nome": "Ministério Público do Rio de Janeiro",
        "descricao": "Ministério Público do Rio de Janeiro - MP RJ",
        "sigla": "MP RJ",
        "oab": false,
        "inedita": false,
        "timestamp": "2024-12-24 16:04:44",
        "maisBuscado": null,
        "tiposProva": [
          1
        ],
        "id": 1414,
        "maisBuscadoPosicao": null,
        "qtdConcursos": 1,
        "qtdProvas": 1,
        "qtdQuestoes": 80,
        "qtdComentarios": 52,
        "slug": "mp-rj",
        "index": "banca-1.11.0-3"
      },
      {
        "nome": "Prefeitura de Pimenta Bueno",
        "descricao": "Prefeitura de Pimenta Bueno",
        "sigla": "",
        "oab": false,
        "inedita": false,
        "timestamp": "2024-12-24 16:04:44",
        "maisBuscado": null,
        "tiposProva": [
          1
        ],
        "id": 1427,
        "maisBuscadoPosicao": null,
        "qtdConcursos": 0,
        "qtdProvas": 0,
        "qtdQuestoes": 0,
        "qtdComentarios": 0,
        "slug": "prefeitura-de-pimenta-bueno",
        "index": "banca-1.11.0-3"
      },
      {
        "nome": "Empresa de Gestao Publica LTDA",
        "descricao": "Empresa de Gestao Publica LTDA",
        "sigla": "EGP",
        "oab": false,
        "inedita": false,
        "timestamp": "2024-12-24 16:04:44",
        "maisBuscado": null,
        "tiposProva": [
          1
        ],
        "id": 1435,
        "maisBuscadoPosicao": null,
        "qtdConcursos": 0,
        "qtdProvas": 0,
        "qtdQuestoes": 0,
        "qtdComentarios": 0,
        "slug": "egp",
        "index": "banca-1.11.0-3"
      },
      {
        "nome": "Prefeitura de Ouro Preto",
        "descricao": "Prefeitura de Ouro Preto",
        "sigla": "",
        "oab": false,
        "inedita": false,
        "timestamp": "2024-12-24 16:04:44",
        "maisBuscado": null,
        "tiposProva": [
          1
        ],
        "id": 1469,
        "maisBuscadoPosicao": null,
        "qtdConcursos": 0,
        "qtdProvas": 0,
        "qtdQuestoes": 0,
        "qtdComentarios": 0,
        "slug": "prefeitura-de-ouro-preto",
        "index": "banca-1.11.0-3"
      },
      {
        "nome": "Travessia Desenvolvimento Organizacional",
        "descricao": "Travessia Desenvolvimento Organizacional",
        "sigla": "",
        "oab": false,
        "inedita": false,
        "timestamp": "2024-12-24 16:04:44",
        "maisBuscado": null,
        "tiposProva": [
          1
        ],
        "id": 1470,
        "maisBuscadoPosicao": null,
        "qtdConcursos": 0,
        "qtdProvas": 0,
        "qtdQuestoes": 0,
        "qtdComentarios": 0,
        "slug": "travessia-desenvolvimento-organizacional",
        "index": "banca-1.11.0-3"
      },
      {
        "nome": "Instituto Carlos Augusto Bittencourt",
        "descricao": "Instituto Carlos Augusto Bittencourt- INCAB",
        "sigla": "INCAB",
        "oab": false,
        "inedita": false,
        "timestamp": "2024-12-24 16:04:44",
        "maisBuscado": null,
        "tiposProva": [
          1
        ],
        "id": 1474,
        "maisBuscadoPosicao": null,
        "qtdConcursos": 1,
        "qtdProvas": 1,
        "qtdQuestoes": 58,
        "qtdComentarios": 29,
        "slug": "incab",
        "index": "banca-1.11.0-3"
      },
      {
        "nome": "Fundação de Apoio ao Ensino, Extensão e Pesquisas de Alagoas",
        "descricao": "Fundação de Apoio ao Ensino, Extensão e Pesquisas de Alagoas - FEPESA",
        "sigla": "FEPESA",
        "oab": false,
        "inedita": false,
        "timestamp": "2024-12-24 16:04:44",
        "maisBuscado": null,
        "tiposProva": [
          1
        ],
        "id": 1478,
        "maisBuscadoPosicao": null,
        "qtdConcursos": 1,
        "qtdProvas": 1,
        "qtdQuestoes": 50,
        "qtdComentarios": 0,
        "slug": "fepesa",
        "index": "banca-1.11.0-3"
      },
      {
        "nome": "Prefeitura de Rio Novo",
        "descricao": "Prefeitura de Rio Novo",
        "sigla": "",
        "oab": false,
        "inedita": false,
        "timestamp": "2024-12-24 16:04:44",
        "maisBuscado": null,
        "tiposProva": [
          1
        ],
        "id": 1486,
        "maisBuscadoPosicao": null,
        "qtdConcursos": 0,
        "qtdProvas": 0,
        "qtdQuestoes": 0,
        "qtdComentarios": 0,
        "slug": "prefeitura-de-rio-novo",
        "index": "banca-1.11.0-3"
      },
      {
        "nome": "Secretaria de Estado de Saúde de Goiás",
        "descricao": "Secretaria de Estado de Saúde de Goiás - SES GO",
        "sigla": "SES GO",
        "oab": false,
        "inedita": false,
        "timestamp": "2024-12-24 16:04:44",
        "maisBuscado": null,
        "tiposProva": [
          1
        ],
        "id": 1490,
        "maisBuscadoPosicao": null,
        "qtdConcursos": 1,
        "qtdProvas": 7,
        "qtdQuestoes": 250,
        "qtdComentarios": 0,
        "slug": "ses-go",
        "index": "banca-1.11.0-3"
      }
    ]
  }
}